<?xml version="1.0" ?>
<sdf version="1.5">
  <world name="default">
    <!-- A global light source -->
    <include>
      <uri>model://sun</uri>
    </include>
    <!-- A ground plane -->
    <include>
      <uri>model://ground_plane</uri>
      <pose>0 0 -1.015 0 -0 0</pose>
    </include>

    <!-- Model -->
    <!-- <include>
      <uri>model://table</uri>
      <pose>0.4 0 -1.015 0 -0 0</pose>
    </include> -->


    <include>
      <uri>model://workcell</uri>
      <pose>0 0 0 0 0 0</pose>
    </include>


   <include>
      <uri>model://table_gray</uri>
      <pose>0 0.3 0 0 0 1.5707</pose>
    </include>

    <!--Kuka Arm-->
    <!-- <include>
        <uri>model://kuka_iiwa_14_prismatic_gripper</uri>
        <pose>0.4 -0.50 -0.35 0 -0 0</pose>
    </include> -->

      <include>
        <uri>model://kuka_robot_with_smaller_gripper</uri>
        <pose>0 -0.6 0.433 -0 0</pose>
    </include>

    <include>
        <uri>model://landing_box</uri>
        <pose>-0.2 -0.8 0.01175 0 -0 0</pose>
    </include>


    

    <physics name='default_physics' default='0' type='ode'>
      <!-- the max step size is set to 0.001 by default. -->
      <!-- When increasing it, the simulation quality may suffer. -->
      <max_step_size>0.001</max_step_size>
      <!-- this factor actually is computed by multiplying the other two -->
      <real_time_factor>0.1</real_time_factor>
      <real_time_update_rate>100</real_time_update_rate>
    </physics>


  </world>
</sdf>
